/* XPM */
static const char * measure32_xpm[] = {
"32 32 416 2",
"  	c None",
". 	c #ECECED",
"+ 	c #EDEDEE",
"@ 	c #EAEAEA",
"# 	c #E9E9E9",
"$ 	c #E7E7E7",
"% 	c #E6E6E6",
"& 	c #E2E2E2",
"* 	c #E1E1E1",
"= 	c #DFDFDF",
"- 	c #DEDEDE",
"; 	c #DDDDDD",
"> 	c #DCDCDC",
", 	c #D9D9D9",
"' 	c #444548",
") 	c #E2E2E8",
"! 	c #DDDDE4",
"~ 	c #DDDDE3",
"{ 	c #DCDCE2",
"] 	c #DADAE1",
"^ 	c #D7D7DE",
"/ 	c #D6D6DD",
"( 	c #D4D5DC",
"_ 	c #D2D3DA",
": 	c #D2D2DA",
"< 	c #D0D0D8",
"[ 	c #CFCED7",
"} 	c #CCCCD5",
"| 	c #CACAD3",
"1 	c #C9C9D2",
"2 	c #C7C7D0",
"3 	c #C4C4CE",
"4 	c #C2C2CB",
"5 	c #C0C0C9",
"6 	c #BDBDC7",
"7 	c #BBBAC5",
"8 	c #BAB8C3",
"9 	c #B6B5C1",
"0 	c #B2B2BE",
"a 	c #AFAFBB",
"b 	c #ACACB8",
"c 	c #A7A6B2",
"d 	c #A09FAC",
"e 	c #8F8E9D",
"f 	c #25252A",
"g 	c #ECECEC",
"h 	c #DEDEE4",
"i 	c #D8D8DF",
"j 	c #D5D6DD",
"k 	c #D2D4DB",
"l 	c #D1D1DA",
"m 	c #CECED7",
"n 	c #CDCDD6",
"o 	c #CBCBD4",
"p 	c #C6C6D0",
"q 	c #C3C3CC",
"r 	c #C1C1CA",
"s 	c #BEBEC7",
"t 	c #BCBBC6",
"u 	c #BBBAC4",
"v 	c #B9B8C2",
"w 	c #B4B3BF",
"x 	c #B2B1BD",
"y 	c #AEADBA",
"z 	c #ACAAB7",
"A 	c #A8A7B3",
"B 	c #9F9FAB",
"C 	c #9493A0",
"D 	c #8A8A96",
"E 	c #232327",
"F 	c #EBEBEB",
"G 	c #D6D6DE",
"H 	c #D4D4DB",
"I 	c #CFCFD8",
"J 	c #CECED6",
"K 	c #CCCCD4",
"L 	c #CACAD2",
"M 	c #BFBFC8",
"N 	c #BCBCC6",
"O 	c #B3B2BE",
"P 	c #ACAAB6",
"Q 	c #A9A8B4",
"R 	c #A3A2AF",
"S 	c #9A9AA6",
"T 	c #90909E",
"U 	c #868695",
"V 	c #202022",
"W 	c #D6D6DC",
"X 	c #D1D2DA",
"Y 	c #CACAD4",
"Z 	c #C8C8D1",
"` 	c #C6C6CF",
" .	c #BCBAC5",
"..	c #BABAC4",
"+.	c #B8B7C2",
"@.	c #B4B4BF",
"#.	c #B2B1BE",
"$.	c #AFAEBB",
"%.	c #ABAAB6",
"&.	c #A5A5B1",
"*.	c #A0A0AC",
"=.	c #9696A3",
"-.	c #8F8E9B",
";.	c #848493",
">.	c #1F1E22",
",.	c #E8E8E8",
"'.	c #C9C8D2",
").	c #C5C5CF",
"!.	c #C4C4CD",
"~.	c #AEAEBA",
"{.	c #ACABB7",
"].	c #A8A7B4",
"^.	c #A4A4B0",
"/.	c #9D9CAA",
"(.	c #9494A2",
"_.	c #8C8B9A",
":.	c #828190",
"<.	c #1D1D21",
"[.	c #CFCFD7",
"}.	c #C5C5CE",
"|.	c #B5B4C0",
"1.	c #ACACB9",
"2.	c #A1A1AE",
"3.	c #9B9BA7",
"4.	c #92929F",
"5.	c #8A8996",
"6.	c #7E7F8F",
"7.	c #D3D4DA",
"8.	c #D1D1D9",
"9.	c #BCBDC7",
"0.	c #BBBBC6",
"a.	c #BAB9C4",
"b.	c #B8B6C2",
"c.	c #B4B3C0",
"d.	c #9E9FAB",
"e.	c #9898A5",
"f.	c #90909D",
"g.	c #878794",
"h.	c #7C7D8B",
"i.	c #1D1C20",
"j.	c #E4E4E4",
"k.	c #B7B6C2",
"l.	c #B0B0BC",
"m.	c #9B9BA8",
"n.	c #9696A2",
"o.	c #8E8E9A",
"p.	c #858593",
"q.	c #7A7B89",
"r.	c #1D1B1F",
"s.	c #E3E3E3",
"t.	c #ADACBA",
"u.	c #ACABB8",
"v.	c #9999A6",
"w.	c #9494A0",
"x.	c #8C8C98",
"y.	c #828390",
"z.	c #787886",
"A.	c #1C1B1E",
"B.	c #BEBEC8",
"C.	c #B7B8C3",
"D.	c #B0AFBB",
"E.	c #A8A8B4",
"F.	c #9798A3",
"G.	c #92929E",
"H.	c #898996",
"I.	c #80808F",
"J.	c #777685",
"K.	c #1A1A1C",
"L.	c #E0E0E0",
"M.	c #000000",
"N.	c #868694",
"O.	c #80808D",
"P.	c #757582",
"Q.	c #19181A",
"R.	c #B9B9C3",
"S.	c #B2B2BF",
"T.	c #AEAEBB",
"U.	c #8E8D9A",
"V.	c #7D7D8B",
"W.	c #737480",
"X.	c #161618",
"Y.	c #BBBBC5",
"Z.	c #B5B5C1",
"`.	c #B1B2BD",
" +	c #AAAAB6",
".+	c #9898A4",
"++	c #9595A1",
"@+	c #8C8B99",
"#+	c #848492",
"$+	c #7A7A89",
"%+	c #70707E",
"&+	c #151517",
"*+	c #ABABB8",
"=+	c #A5A5B2",
"-+	c #A3A3AF",
";+	c #A0A0AE",
">+	c #9393A0",
",+	c #8F8F9D",
"'+	c #8A8A97",
")+	c #80808E",
"!+	c #777786",
"~+	c #6E6E7C",
"{+	c #141416",
"]+	c #B5B4C1",
"^+	c #ABABB7",
"/+	c #AAA9B5",
"(+	c #9EA0AB",
"_+	c #8D8C99",
":+	c #7E7D8C",
"<+	c #767684",
"[+	c #6C6C7A",
"}+	c #131316",
"|+	c #B8B8C2",
"1+	c #B4B4C0",
"2+	c #ADADBA",
"3+	c #A6A6B2",
"4+	c #A0A0AD",
"5+	c #9595A2",
"6+	c #898998",
"7+	c #7C7C8A",
"8+	c #747482",
"9+	c #6A6A78",
"0+	c #121215",
"a+	c #B0B1BC",
"b+	c #ABABB6",
"c+	c #A5A5B0",
"d+	c #A3A3B0",
"e+	c #9FA0AC",
"f+	c #9B9BA9",
"g+	c #848490",
"h+	c #71717F",
"i+	c #676676",
"j+	c #121214",
"k+	c #BAB8C4",
"l+	c #9EA0AC",
"m+	c #8D8D99",
"n+	c #706F7D",
"o+	c #646572",
"p+	c #121113",
"q+	c #AFAFBC",
"r+	c #A7A7B3",
"s+	c #A2A2AF",
"t+	c #9F9FAC",
"u+	c #757583",
"v+	c #6C6C79",
"w+	c #636470",
"x+	c #B8B9C4",
"y+	c #A1A0AE",
"z+	c #A09FAB",
"A+	c #9F9EAB",
"B+	c #82838F",
"C+	c #7B7B89",
"D+	c #72727F",
"E+	c #6B6B79",
"F+	c #61616E",
"G+	c #0F0F10",
"H+	c #B5B7C2",
"I+	c #70707F",
"J+	c #696976",
"K+	c #5F5F6C",
"L+	c #0D0D0E",
"M+	c #ABAAB7",
"N+	c #A9A8B5",
"O+	c #9F9EAA",
"P+	c #9C9CA9",
"Q+	c #9999A5",
"R+	c #9797A3",
"S+	c #807F8E",
"T+	c #7D7C8C",
"U+	c #706F7C",
"V+	c #656574",
"W+	c #5E5E69",
"X+	c #0C0C0E",
"Y+	c #ACACBA",
"Z+	c #A4A4B1",
"`+	c #A2A3AF",
" @	c #9E9EAA",
".@	c #9695A1",
"+@	c #94939F",
"@@	c #91919E",
"#@	c #7B7A8A",
"$@	c #656571",
"%@	c #5C5C68",
"&@	c #0C0C0D",
"*@	c #9797A2",
"=@	c #93929F",
"-@	c #91909E",
";@	c #8F8E9C",
">@	c #787887",
",@	c #6B6B78",
"'@	c #62626F",
")@	c #585865",
"!@	c #9899A4",
"~@	c #9897A3",
"{@	c #8E8E9C",
"]@	c #8D8C98",
"^@	c #7C7B8B",
"/@	c #797A89",
"(@	c #747483",
"_@	c #6F6E7C",
":@	c #686774",
"<@	c #61606D",
"[@	c #575763",
"}@	c #0B0B0C",
"|@	c #9C9CAA",
"1@	c #9998A5",
"2@	c #9796A3",
"3@	c #9494A1",
"4@	c #908F9C",
"5@	c #8F8E9A",
"6@	c #868594",
"7@	c #848491",
"8@	c #828090",
"9@	c #80808C",
"0@	c #7C7C8B",
"a@	c #7A7A88",
"b@	c #747384",
"c@	c #707080",
"d@	c #6B6A79",
"e@	c #636271",
"f@	c #5D5D6A",
"g@	c #535261",
"h@	c #0B0A0C",
"i@	c #A1A2AE",
"j@	c #9C9DAA",
"k@	c #9A9AA8",
"l@	c #9797A5",
"m@	c #91909F",
"n@	c #908F9E",
"o@	c #8C8C9B",
"p@	c #828290",
"q@	c #7E7C8C",
"r@	c #727280",
"s@	c #6E6D7C",
"t@	c #6A697A",
"u@	c #656576",
"v@	c #605F6E",
"w@	c #575667",
"x@	c #4F505E",
"y@	c #0A0A0C",
"z@	c #9A9AA7",
"A@	c #8E8D9C",
"B@	c #8B8A9A",
"C@	c #898898",
"D@	c #868696",
"E@	c #858594",
"F@	c #7F7F8D",
"G@	c #7A7988",
"H@	c #787785",
"I@	c #767584",
"J@	c #737280",
"K@	c #6F6F7B",
"L@	c #6A6978",
"M@	c #686776",
"N@	c #666676",
"O@	c #636372",
"P@	c #525261",
"Q@	c #4A4A59",
"R@	c #0A0A0B",
"S@	c #8A8999",
"T@	c #878796",
"U@	c #838392",
"V@	c #7B7B8A",
"W@	c #71707F",
"X@	c #71707E",
"Y@	c #6E6D7B",
"Z@	c #696978",
"`@	c #696A76",
" #	c #616070",
".#	c #5E5E6C",
"+#	c #5C5B6B",
"@#	c #585868",
"##	c #515160",
"$#	c #4C4C5B",
"%#	c #444452",
"&#	c #08090A",
"*#	c #828392",
"=#	c #7D7D8D",
"-#	c #7B7B8B",
";#	c #7A7A8A",
">#	c #757682",
",#	c #727281",
"'#	c #71727F",
")#	c #6A6A79",
"!#	c #6A6A77",
"~#	c #656572",
"{#	c #626270",
"]#	c #60606E",
"^#	c #5C5E6C",
"/#	c #5C5D6A",
"(#	c #595A68",
"_#	c #595867",
":#	c #565564",
"<#	c #545463",
"[#	c #535362",
"}#	c #4E4E5E",
"|#	c #4A4A5A",
"1#	c #424250",
"2#	c #292A33",
"3#	c #050506",
"4#	c #9E9E9E",
"5#	c #26262A",
"6#	c #252529",
"7#	c #222124",
"8#	c #221F22",
"9#	c #1E1E21",
"0#	c #1B1B1E",
"a#	c #1A191B",
"b#	c #18171A",
"c#	c #171618",
"d#	c #101012",
"e#	c #0F0F11",
"f#	c #0C0B0C",
"g#	c #09080A",
"h#	c #080709",
"i#	c #010101",
". + . . @ @ # $ % % & & * = = - ; > , , , , , , , , , , , , , ' ",
"+ ) ! ~ { ] ^ / ( _ : < [ } | | 1 2 3 4 5 6 7 8 9 0 a b c d e f ",
"g h { ] i / j k : l m n o | 1 p 3 q r s t u v w x y z A B C D E ",
"F { i G j H : l I J K | L p 3 q r M N 7 8 9 O a b P Q R S T U V ",
"@ i / W _ X I J } Y L Z ` q 4 r 6  ...+.@.#.$.b %.Q &.*.=.-.;.>.",
",./ H : < J } o Y '.).!.4 r M 6 7 v 9 O #.~.b {.].&.^./.(._.:.<.",
"$ W : [.} o Y 1 2 }.q 4 M 6 t 7 v |.0 #.~.1.P Q &.^.2.3.4.5.6.<.",
"$ 7.8.n | | Z p 3 4 4 M 9.0.a.b.c.O x ~.b %.].&.^.2.d.e.f.g.h.i.",
"j.: J Y | 2 ` !.4 4 M 9.0.a.k.w 0 l.~.b %.Q &.^.2.d.m.n.o.p.q.r.",
"s.< } | Z ` !.4 4 M 9.7 ..k.c.0 l.t.u.%.].&.^.2.d.m.v.w.x.y.z.A.",
"& J | L ` q 4 r B.N 0.C.k.w 0 D.t.u.%.E.&.^.2.d.m.v.F.G.H.I.J.K.",
"L.K | p M.M.M.M.M.M.M.M.M.M.M.M.M.M.M.M.M.M.M.M.M.M.M.M.N.O.P.Q.",
"= | Z 3 M.r M.N M.R.M.S.M.T.M.u.M.].M.^.M.d.M.v.M.n.M.U.;.V.W.X.",
"= L 3 4 M.6 M.Y.M.Z.M.`.M.1.M. +M.&.M.2.M.m.M..+M.++M.@+#+$+%+&+",
"- p q 5 M.t u v Z.0 `.T.1.*+M.=+=+-+;+d.m.v..+n.M.>+,+'+)+!+~+{+",
"; 3 r 6 M...v ]+0 `.T.1.^+/+M.&.-+2.(+m.v..+n.++M.,+_+N.:+<+[+}+",
"> 4 s 7 M.|+1+M.M.2+1.*+E.3+M.^.4+M.M.v..+n.5+>+M._+6+M.7+8+9+0+",
", 5 t a.M.@.M.a+2+M.b+E.=+c+d+e+M.f+M..+n.++>+e _+6+M.g+$+h+i+j+",
", 6 k+|+M.0 M.2+b M.E.&.c+d+e+l+m.v.M.=.++>+,+m+6+H.N.I.!+n+o+p+",
", 7 k.1+M.q+~.M.M.r+&.c+s+e+t+m.v..+M.++>+,+_+6+H.N.#+M.u+v+w+p+",
", x+1+0 M.2+b %.3+&.^.y+z+A+m.v..+=.++>+e _+6+H.N.#+B+C+D+E+F+G+",
", H+S.T.M.M.M.M.M.M.M.M.M.M.M.M.M.M.M.M.M.M.M.M.M.M.M.M.I+J+K+L+",
", c.l.1.M+N+3+=+d+d O+P+S Q+R+n.w.4.e _+6+H.N.#+B+S+T+<+U+V+W+X+",
", 0 Y+%.].3+Z+`+*. @m.S .+n..@+@@@,+m+6+H.N.#+B+S+T+#@u+[+$@%@&@",
", a {.].3+^.s+e+ @m.Q+*@n.C =@-@;@_+6+H.N.#+B+S+T+#@>@D+,@'@)@&@",
", b ].3+^.s+e+ @m.!@~@n.w.G.T {@]@6+H.N.#+B+S+T+^@/@(@_@:@<@[@}@",
", /+3+^.2.e+|@1@2@3@>+T 4@5@@+H.N.6@7@8@9@0@C+a@!+b@c@d@e@f@g@h@",
", 3+i@j@k@l@(.m@n@o@@+5.N.;.p@I.S+q@C+a@<+<+8+r@%+s@t@u@v@w@x@y@",
", *.z@(.T A@B@C@D@E@g+I.F@0@$+G@H@I@J@D+n+K@[+L@M@N@O@v@w@P@Q@R@",
", e.T S@T@;.U@I.F@0@V@>@<+(@J@W@X@Y@,@Z@`@V+o+ #v@.#+#@###$#%#&#",
", o@*#I.=#-#;#!+>#,#'#%+~+s@)#!#V+~#{#]#^#/#(#_#:#<#[#}#|#1#2#3#",
"4#5#6#7#8#>.9#i.r.0#a#Q.b#c#&+{+}+p+d#e#G+L+L+X+X+f#y@R@g#h#3#i#"};
