/* XPM */
static const char * viewit_clipplane_yz_xpm[] = {
"64 64 360 2",
"  	c None",
". 	c #EAEAEA",
"+ 	c #EDEDEE",
"@ 	c #E7E7E7",
"# 	c #E2E2E2",
"$ 	c #DEDEDE",
"% 	c #D9D9D9",
"& 	c #C2C2C2",
"* 	c #010101",
"= 	c #4D505A",
"- 	c #E0E0E6",
"; 	c #DDDDE5",
"> 	c #DDDDE2",
", 	c #DBDBE2",
"' 	c #D7D8DF",
") 	c #D6D6DD",
"! 	c #D2D4DB",
"~ 	c #D2D2DA",
"{ 	c #D0CFD8",
"] 	c #CECED6",
"^ 	c #CBCBD4",
"/ 	c #CACAD3",
"( 	c #C7C7D0",
"_ 	c #C5C5CF",
": 	c #C3C3CC",
"< 	c #C2C2CB",
"[ 	c #BFBFC8",
"} 	c #BDBDC7",
"| 	c #BCBBC6",
"1 	c #BBBAC5",
"2 	c #BAB9C3",
"3 	c #B6B5C1",
"4 	c #B4B2BF",
"5 	c #B2B2BE",
"6 	c #B0AFBB",
"7 	c #ADADBA",
"8 	c #ACABB7",
"9 	c #ABAAB6",
"0 	c #A8A6B2",
"a 	c #A5A5B1",
"b 	c #A19FAB",
"c 	c #9A9AA8",
"d 	c #898998",
"e 	c #494954",
"f 	c #D8D8DF",
"g 	c #D3D5DC",
"h 	c #CFCFD8",
"i 	c #B8B6C2",
"j 	c #A4A4AF",
"k 	c #908E9D",
"l 	c #898996",
"m 	c #C8C8D0",
"n 	c #B5B4BF",
"o 	c #ACABB8",
"p 	c #9E9EAA",
"q 	c #9999A5",
"r 	c #91919E",
"s 	c #8E8D98",
"t 	c #878896",
"u 	c #48474E",
"v 	c #000000",
"w 	c #9595A1",
"x 	c #868694",
"y 	c #43444B",
"z 	c #9E9EA5",
"A 	c #7D7D88",
"B 	c #A1A1AF",
"C 	c #9897A3",
"D 	c #9292A0",
"E 	c #838492",
"F 	c #424146",
"G 	c #87878D",
"H 	c #434346",
"I 	c #6D6D74",
"J 	c #6A6A72",
"K 	c #9897A4",
"L 	c #8E8D9D",
"M 	c #3D3C42",
"N 	c #D4D5DA",
"O 	c #86868C",
"P 	c #161617",
"Q 	c #424245",
"R 	c #B1B1B9",
"S 	c #5B5B61",
"T 	c #0C0C0C",
"U 	c #696971",
"V 	c #828291",
"W 	c #84848A",
"X 	c #AFAFB8",
"Y 	c #36363A",
"Z 	c #121213",
"` 	c #76767E",
" .	c #343539",
"..	c #343438",
"+.	c #7E7D8D",
"@.	c #818187",
"#.	c #333338",
"$.	c #A09FAC",
"%.	c #393941",
"&.	c #D0D0D7",
"*.	c #2C2C2E",
"=.	c #58585C",
"-.	c #ADADB5",
";.	c #2B2B2D",
">.	c #56565A",
",.	c #232327",
"'.	c #222225",
").	c #9696A4",
"!.	c #848492",
"~.	c #E6E6E6",
"{.	c #83838A",
"].	c #C8C6D1",
"^.	c #404043",
"/.	c #3F3F42",
"(.	c #BBBCC6",
"_.	c #80808A",
":.	c #35353A",
"<.	c #6B6B75",
"[.	c #7A7B8C",
"}.	c #6A6A6F",
"|.	c #151516",
"1.	c #6E6E76",
"2.	c #595961",
"3.	c #A3A3B0",
"4.	c #66666E",
"5.	c #878694",
"6.	c #828288",
"7.	c #7E7E84",
"8.	c #7C7C83",
"9.	c #49494F",
"0.	c #7E7D88",
"a.	c #63636B",
"b.	c #8F909D",
"c.	c #82838E",
"d.	c #7A7A89",
"e.	c #C6C8D1",
"f.	c #65666C",
"g.	c #37373B",
"h.	c #121214",
"i.	c #A8A7B4",
"j.	c #9F9FAC",
"k.	c #9EA0AB",
"l.	c #62626A",
"m.	c #898A94",
"n.	c #7F808D",
"o.	c #777888",
"p.	c #39353D",
"q.	c #CFD0D8",
"r.	c #6C6C71",
"s.	c #28292B",
"t.	c #3C3C40",
"u.	c #242427",
"v.	c #525259",
"w.	c #8D8E97",
"x.	c #777886",
"y.	c #3B3B40",
"z.	c #27272A",
"A.	c #2F3034",
"B.	c #93949F",
"C.	c #8A8A98",
"D.	c #7D7D8B",
"E.	c #636369",
"F.	c #141315",
"G.	c #9898A2",
"H.	c #5B5B62",
"I.	c #5A5A62",
"J.	c #212123",
"K.	c #2F2F34",
"L.	c #747481",
"M.	c #73737C",
"N.	c #B1B1BC",
"O.	c #83838D",
"P.	c #313135",
"Q.	c #101011",
"R.	c #35353B",
"S.	c #B6B8C2",
"T.	c #131315",
"U.	c #4C4C52",
"V.	c #A7A7B4",
"W.	c #303034",
"X.	c #7C7B8B",
"Y.	c #72717E",
"Z.	c #69696E",
"`.	c #262629",
" +	c #39383C",
".+	c #9798A3",
"++	c #404046",
"@+	c #323135",
"#+	c #7F7F85",
"$+	c #B4B4C1",
"%+	c #616168",
"&+	c #5E5E68",
"*+	c #5A5A65",
"=+	c #B3B3C0",
"-+	c #4A4A50",
";+	c #49494E",
">+	c #595962",
",+	c #797987",
"'+	c #70717B",
")+	c #302E33",
"!+	c #68686E",
"~+	c #5E5E65",
"{+	c #4E4E56",
"]+	c #2B2A2E",
"^+	c #3E3E41",
"/+	c #ADADBB",
"(+	c #81818B",
"_+	c #63636A",
":+	c #9494A1",
"<+	c #2B2B30",
"[+	c #747484",
"}+	c #AFB0BB",
"|+	c #5C5C63",
"1+	c #91919B",
"2+	c #8F8F9B",
"3+	c #111213",
"4+	c #232326",
"5+	c #898995",
"6+	c #6D6D7A",
"7+	c #A7A8B4",
"8+	c #A6A6B3",
"9+	c #353539",
"0+	c #111113",
"a+	c #777780",
"b+	c #727281",
"c+	c #28272B",
"d+	c #3C3C3F",
"e+	c #92929D",
"f+	c #252528",
"g+	c #44444B",
"h+	c #64656C",
"i+	c #2C2C31",
"j+	c #A5A4AD",
"k+	c #6E6E77",
"l+	c #797981",
"m+	c #2C2B30",
"n+	c #696977",
"o+	c #25252A",
"p+	c #797A81",
"q+	c #505055",
"r+	c #7F7F88",
"s+	c #75767F",
"t+	c #111112",
"u+	c #84848F",
"v+	c #51515B",
"w+	c #797880",
"x+	c #78787F",
"y+	c #101012",
"z+	c #81818C",
"A+	c #484850",
"B+	c #787786",
"C+	c #6E6E7D",
"D+	c #676675",
"E+	c #74757C",
"F+	c #303035",
"G+	c #56575E",
"H+	c #36363C",
"I+	c #3B3B3F",
"J+	c #131214",
"K+	c #3D3D43",
"L+	c #55545E",
"M+	c #26262C",
"N+	c #222328",
"O+	c #81808A",
"P+	c #2D2D32",
"Q+	c #61616C",
"R+	c #26262B",
"S+	c #706F7D",
"T+	c #6C6B7A",
"U+	c #626271",
"V+	c #5B5B65",
"W+	c #0F0F11",
"X+	c #848392",
"Y+	c #222125",
"Z+	c #9495A0",
"`+	c #91919C",
" @	c #0F0F10",
".@	c #585861",
"+@	c #676878",
"@@	c #9A9AA5",
"#@	c #39393E",
"$@	c #6F6F78",
"%@	c #2C2C30",
"&@	c #48484F",
"*@	c #676874",
"=@	c #61616D",
"-@	c #39393D",
";@	c #ABACB7",
">@	c #2A2A2F",
",@	c #4B4B54",
"'@	c #6F707B",
")@	c #72727A",
"!@	c #9594A0",
"~@	c #37373C",
"{@	c #0E0E10",
"]@	c #777785",
"^@	c #807E8E",
"/@	c #5D5D6A",
"(@	c #5F5E65",
"_@	c #83828C",
":@	c #54535E",
"<@	c #0E0E0F",
"[@	c #0D0D0F",
"}@	c #5A5A67",
"|@	c #242328",
"1@	c #1D1D21",
"2@	c #777786",
"3@	c #0E0D0F",
"4@	c #323239",
"5@	c #1C1C1F",
"6@	c #262628",
"7@	c #757581",
"8@	c #17171A",
"9@	c #19191C",
"0@	c #17181A",
"a@	c #686775",
"b@	c #94939F",
"c@	c #7C7B8C",
"d@	c #64636F",
"e@	c #ABABB8",
"f@	c #151518",
"g@	c #605F6E",
"h@	c #52525E",
"i@	c #6A6973",
"j@	c #555563",
"k@	c #888798",
"l@	c #585767",
"m@	c #727182",
"n@	c #4C4C5C",
"o@	c #141216",
"p@	c #9B9BAA",
"q@	c #82818F",
"r@	c #6A6A79",
"s@	c #515161",
"t@	c #9B9CAA",
"u@	c #9493A2",
"v@	c #8D8B9A",
"w@	c #686778",
"x@	c #666679",
"y@	c #5C5B6B",
"z@	c #585768",
"A@	c #121215",
"B@	c #878798",
"C@	c #858493",
"D@	c #464758",
"E@	c #888796",
"F@	c #434353",
"G@	c #0D1013",
"H@	c #262730",
"I@	c #0E0D11",
"J@	c #7F8391",
"K@	c #5F606E",
"L@	c #575A68",
"M@	c #030406",
"N@	c #4C494F",
"O@	c #423D43",
"P@	c #2F2D31",
"Q@	c #201F23",
"R@	c #18171A",
"S@	c #100E11",
". + + + + + + + . . . . . . @ @ @ @ @ @ # # # # # # $ $ $ $ $ $ $ $ % $ % % % % % % % % % % % % % % % % % % % % % % % % % % & * ",
"+ + + + + . + . . . . . . @ @ @ @ # @ # # # # # # $ # $ # $ $ $ $ % $ % % % % % % % % % % % % % % % % % % % % % % % % % % % = * ",
"+ + + - ; ; ; > > , , , ' ) ) ) ) ) ! ! ~ ~ ~ { { ] ] ] ^ / / / / / / ( ( _ : < < < [ } | | 1 2 2 3 4 5 5 6 7 8 9 0 a b c d e * ",
"+ + - ; ; > > > , , , ) f ) ) ) g ! ~ ~ ~ ~ { h h ] ^ ^ / / / / / ( _ _ : < < < [ } } | 1 2 2 i 3 4 5 5 7 7 8 8 a j b c k l e * ",
"+ . ; - > > , , , ' ) ) ) ) g ! ~ ~ ~ ~ h h ] ] ] ^ / / / / m _ _ _ _ : < < [ [ } | | 1 2 2 3 n 5 5 6 7 o 8 9 a j p q r s t u * ",
". + > > , , , ' ) ' ) v v v v v v v v v v v v v v v v v v v v v v v v v v v v v v v v v v v v v v v v v v 9 0 0 b c w k s x y * ",
". . > , , f ' ) ) ) z v v v v v v v v v v v v v v v v v v v v v v v v v v v v v v v v v v v v v v v v v v A a B p C D k d E F * ",
"+ . , , ' ) ) ) ) g G v v H ~ h ] h ] ] ^ / / / / m _ _ _ : < < < [ [ } | | 1 2 2 i 3 4 5 5 7 7 o 8 I v v J a b c K r L d E M * ",
". . , ' ) ) ) ) N ! O P O v Q R ] ] ^ ^ ^ / / _ ( _ _ : < < < < [ } | | | 2 2 2 3 n 4 5 6 6 7 o 8 S v v T U j p q w r s d V M * ",
". . f ) ) ) ) N ~ ~ H H ] W P P X ^ / / / ( / _ _ _ < < < < < [ } | | 2 2 2 3 n n 5 5 6 6 7 o 8 Y v Z `  ...B p q D L s l +.M * ",
". @ ) ) ) N ~ ~ ~ ~ Q Q ] ] X P v @./ / _ _ _ _ < < < < < } [ } | | 2 2 i i n 5 4 5 6 7 7 o 8 Y v Z a a ..#.$.c K D k d x +.%.* ",
". @ f N N ~ ~ ~ &.] *.=.^ ^ ^ -.;.v >.( _ _ : < < < < [ [ } } 1 1 2 2 3 3 4 4 5 5 6 6 7 o 8 Z v ,.a a a #.'.b c ).D L l !.+.%.* ",
"~.~.) ) ! ~ ~ ] ] ] v {.^ ^ / / ].^.v /._ < < < < } [ } } 1 (.1 2 2 3 n 4 5 4 5 6 7 7 7 _.Z v :.a a a j <.v p q w r s l !.[.%.* ",
"@ ~.) N ~ ~ ] ] ^ ^ v {./ / / ( ( ( }.v |.< < < [ } } (.1 1 1 2 2 3 n 4 5 5 5 6 6 7 o 1.v v 2.0 a a j 3.4.v p K w L d 5.V [.%.* ",
"~.~.g ~ ~ ~ ] ] ^ {.v 6./ ( ( ( _ _ : 7.v |.8.} } } (.(.1 2 i 2 3 4 4 4 5 5 7 6 7 o 9.v v 0.a a a j 3.B 4.v a.K D b.l 5.c.d.%.* ",
"~.~.N ~ ~ ] ] ^ / {.v / e.( ( _ _ : < < < |.v f.} (.1 1 2 2 i 3 4 4 5 5 5 6 6 7 o g.v h.i.a a a j 3.B j.k.v l.w r s m.!.n.o.p.* ",
"~.# ~ ~ q.] ^ / / r.v ( ( _ _ : : < < < < } s.v t.(.1 2 2 3 3 4 5 5 5 6 6 7 7 o h.v u.i.a a a j 3.B j.k.p v v.w r w.l V n.x.p.* ",
"~.# ~ ~ ] ] ^ / / ^.v ( _ _ : : < < < < [ } } y.v z.2 2 3 3 4 5 5 5 6 6 7 7 1.h.v Y i.0 a a j 3.B j.k.p c v A.B.b.C.5.V D.x.p.* ",
"# # ~ ] ] ^ / / / ^.^._ _ : : < < < < } } } 1 (.E.v F.G.3 4 4 5 5 6 7 7 o H.v v I.i.a a a j 3.B j.k.p c c J.K.r b.l !.c.D.L.p.* ",
"~.# ~ ] ] / / / / P ^._ : : < < < < [ } } (.1 1 2 ` v v M.4 N.5 6 6 7 o g.v v O.i.a a a j 3.B j.k.p c c q P.Q.B.s l V c.D.L.R.* ",
"# # ] ] ^ / / m _ v /.: : < < < [ [ } } 1 (.1 S.2 3 3 T.v U.6 6 7 7 o h.v Z 9 V.a a a j 3.B j.k.p c c q q W.v b.s t V n.X.Y.R.* ",
"# # ] ] / / / / m v Z.< < < < [ [ } (.1 (.1 S.S.3 3 4 5 `.v  +6 7 1.h.v u.9 i.0 a a j 3.B j.k.p c c q q .+++v b.d x V +.d.L.@+* ",
"# $ ] / / / m _ #+v 7.< < < [ } } (.1 (.2 S.S.3 $+5 5 5 6  +v h.%+v v Y 9 i.a a a j 3.B j.k.p c c q q .+.+&+v *+d !.V D.d.Y.@+* ",
"# $ ] / / / m _ 7.v 8.< < [ } } (.1 (.1 S.S.3 =+5 5 N.5 6 6 -+v v v ;+9 V.a a a j 3.B j.k.p c c q q .+.+w &+v >+l !.c.D.,+'+)+* ",
"$ $ / / / _ _ _ !+v < < } } } (.(.(.2 2 S.3 =+=+5 5 6 7 6 7 u.v v v 2.V.a a a j 3.B j.k.p c c q q .+.+w ).~+v {+t V c.d.,+'+]+* ",
"# $ / / / _ _ < ^+v < [ } } (.1 (.2 2 S.3 $+5 5 N.5 6 /+(+h.v Z _+Z v  .a a j 3.B j.k.p c c q q .+.+).w w :+v <+x V +.d.[+'+]+* ",
"$ $ / / _ _ < < ^+v } } } (.(.(.2 2 S.3 =+5 }+5 5 7 7 |+v v Z 1+V.2+3+v 4+5+3.B j.k.p c c q q .+.+w w w w r v <+x V +.,+L.6+]+* ",
"# $ / m _ < < < v |.} } (.(.1 2 2 S.3 =+5 }+5 5 7 /+g.v v Y 9 7+8+a a 9+v 0+a+j.k.p c c q q .+.+w ).w w D r v v x c.+.[+b+6+c+* ",
"$ $ / _ _ < < [ v d+} (.1 1 2 2 S.3 =+5 }+5 /+7 e+f+v v ;+9 a a a 8+j j g+v v h+p c c q q .+.+w ).w w D r L i+v V +.d.[+b+6+c+* ",
"$ $ _ _ < < [ j+v t.1 1 1 2 2 3 3 =+5 }+5 5 }+k+h.v v l+9 a 8+a 8+j j B B 4.v v P.c q q .+.+).w w w B.r b.L m+v V D.,+[+Y.n+o+* ",
"$ $ _ _ < < [ p+v q+1 1 2 2 3 3 =+5 }+5 /+7 1.v v h.r+9 a 8+a 8+j j B B k.k.s+t+v J.u+.+.+w w w w D r L L s <+v v+X.,+L.Y.n+o+* ",
"$ % _ < < [ } w+v x+2 2 2 3 3 =+5 }+5 5 }+g.v v h.1+9 a 8+a a j j B 3.k.k.p c u+y+v y+z+w ).w w :+r L b.s d A+v v+d.B+L.C+D+o+* ",
"% $ < < [ } 1 q+v E+2 2 3 $+=+5 5 5 7 e+h.v v g.9 7+a 8+a a j j B B k.k.p c c q q F+v v &+w w D r L L s d d G+v H+d.B+b+C+D+o+* ",
"$ % < < [ (.1 I+v ` S.3 n 5 5 5 }+7 1.J+v v g.9 7+a 8+a a j 3.3.k.k.k.j.c c q q .+.+K.v v K+B.r L b.s d d l L+v M+d.[+Y.6+D+N+* ",
"% % < [ } 1 1 I+v n 3 n 5 5 5 }+7 H.v v v O+9 7+a 8+a a j 3.B k.j.k.j.c c q q .+.+w w ~+v v P+L L s d d l l Q+v R+,+L.S+T+U+N+* ",
"% % < } (.1 2 v v 3 n 5 5 5 }+N.g.v v h.l+9 7+8+a a a j 3.3.k.j.k.j.c c q q .+.+w ).w w V+W+v W+s d d l l l X+v v B+b+C+T+U+Y+* ",
"% % [ } 1 2 2 v v n n 5 N.7 Z+h.v v h.`+9 7+a a a a j 3.B k.j.k.p c c q q .+.+).w w w D r L W+v  @.@l l l x V v v [+b+6++@U+Y+* ",
"% % } 1 1 3 @@v #@n }+5 7 $@v v v g.`+9 7+a a a a j 3.3.k.j.k.j.c c q q .+.+).w w w B.r b.L s %@v v &@l x !.V v v L.Y.6+*@=@Y+* ",
"% % 1 1 1 3 M.v -@}+5 7 -+v v v g.;@9 a a a a a j B B k.j.k.p c c q q .+.+).w w w D r L L s d d m+v v >@!.!.c.R+v ,@'@n+*@=@Y+* ",
"% % 1 1 3 3 )@v -@5 !@~@v v v O+;@9 a i.a a a j B B j.j.j.j.c c q q .+.+).w w w B.r L b.s d d d l G+v v {@]@^@R+v ,@6+n+*@/@Y+* ",
"% % 1 S.S.=+-@v (@_@h.v v h.O+;@9 a a a a a B B $.j.b j.p c c q q .+.+).w w w D r L L s d d l l l x :@<@v [@}@R+v |@6+T+*@/@1@* ",
"% % 1 S.3 5  +v -+v v v h.;@9 9 a a a a j B B $.p b p p c c q q .+.+).w w w B.r L L s d d d l l x !.!.2@3@v v 4@v ,.6+D+U+/@5@* ",
"% % S.S.=+=+6@v u.v v g.9 9 7+a a a a 3.B $.b b p p p c c q q .+.+).w w w D r L L s d d l l l x !.!.X+c.7@v v y+v 8@6+D+U+/@9@* ",
"% % S.=+5 5 v v v v g.9 9 V.a a a a 3.B $.b p p p p c c q q ).).).w w w B.r L b.s d d d l l x !.!.X+c.c.^@v v v v v n+*@=@/@9@* ",
"% % 3 =+5 7 v v v v v v v v v v v v v v v v v v v v v v v v v v v v v v v v v v v v v v v v v v v v v v v v v v v v n+U+=@*+0@* ",
"% % =+5 5 N.v v v v v v v v v v v v v v v v v v v v v v v v v v v v v v v v v v v v v v v v v v v v v v v v v v v v a@U+=@*+0@* ",
"% % =+5 7 7 o 9 9 i.V.a V.3.a 3.B $.p p p q c c q q C w C w b@b@r r r L b.s d d l l l x !.!.X+c.c.^@+.D.c@d.[+L.'@T+*@d@/@*+0@* ",
"% % 5 }+7 e@9 9 V.a V.3.a 3.3.k.j.k.p p c c q q C K w w w b@b@b@r r b.L s d d d l l x !.!.X+c.c.^@+.D.c@X.d.,+b+6+n+*@=@/@*+f@* ",
"% % 5 7 7 9 9 V.a V.3.a 3.3.k.$.k.p p q q q .+C w w w D b@b@r r k k L s d d l l l x !.!.X+c.c.^@+.D.c@X.d.,+L.Y.6+n+U+=@g@h@0@* ",
"% % }+7 9 9 V.a V.3.a 3.3.k.j.k.p p c c c .+.+w C w b@b@b@r r k L s s d d d l l x !.!.V c.c.+.+.D.c@d.d.d.[+L.S+6+i@U+=@/@h@f@* ",
"% % 7 e@v V.a V.3.a v 3.v v v v v q q q C C C C w b@b@v r v L L s s d d l l l x !.!.X+v c.^@+.D.c@X.d.d.[+[+Y.6+n+i@d@=@*+j@f@* ",
"% % 7 9 V.v V.3.a v 3.k.j.j.p p v c q .+C C w w b@b@r v r L b.s s d d d l l x !.!.X+c.v ^@+.D.c@X.d.d.o.[+b+S+T+n+U+=@/@*+h@f@* ",
"% % 9 9 V.v 3.a 3.v B k.j.j.c v q C K w w w D v v r k v L v s v k@v v x x v X+v v c.+.v D.v v v d.,+v [+v v T+T+D+v v /@l@h@f@* ",
"% % 9 a a a v 3.v j.j.j.c c v K K D D D D r v r L v s v d v x v v X+X+v V v v ^@D.v d.v ,+,+,+,+v [+v v m@T+v D+v g@/@v j@n@o@* ",
"% % 7+a a 3.v j.v p@c q ).).v D D D v v v s v d d l t v !.v X+v q@q@^@v D.v X.,+,+v ,+v [+L.v v v Y.v C+C+r@v D+v v v v s@= f@* ",
"% % a a k.j.t@v c ).).u@D v L r L v@d d d l v x !.!.V v c.v +.v ^@c@X.v ,+v ,+,+L.v L.v L.v Y.C+v C+v T+w@x@v U+v y@z@s@s@n@A@* ",
"% % a k.j.c .+v D D D L v v@v@d k@B@d x x !.v V V v +.v c@v X.v v ,+B+v L.v v b+b+v Y.v '@v C+T+v w@v a@D+U+v g@v z@j@v n@e o@* ",
"% % j.p q ).D v L L v@d v v v v v C@V V c.c.n.v v X.d.v ,+v B+v B+v v b+Y.v Y.v v 6+6+v n+T+v v a@v v U+U+U+v y@z@v v n@n@D@A@* ",
"% % t@q ).r L d d d E@x C@E E V V c.+.+.D.X.d.d.,+B+B+[+[+L.b+v Y.Y.S+S+6+v 6+n+6+n+n+D+*@*@U+U+U+g@g@g@y@y@y@z@j@s@s@n@D@F@A@* ",
"% % q :+b.d B@k@x C@V V V V +.+.D.X.d.d.,+d.B+[+L.b+b+b+Y.Y.S+v S+S+6+n+n+v +@D+*@*@U+U+U+=@g@g@g@/@/@/@y@y@z@j@s@n@n@e F@y G@* ",
"% % :+L B@x C@V V +.+.+.+.[.d.d.,+,+[+[+[+L.b+Y.Y.S+S+S+S+T+S+n+n+a@a@i@*@U+U+U+U+=@=@/@/@y@/@y@l@l@l@j@j@j@s@s@s@n@D@F@F@H@I@* ",
"% % L J@J@+.+.[.[.d.d.o.d.[+[+L.L.'@b+'@'@C+C+6+T+T+T+T+x@D+*@*@U+U+U+=@K@K@/@K@L@L@L@y@L@j@j@j@j@s@s@s@s@s@n@n@D@F@F@M H@f@M@* ",
"% % N@u u u F F O@O@M M M %.%.p.p.p.R.R.@+@+@+P@)+P@P@]+]+c+c+o+o+o+Y+Y+Q@Q@1@1@1@5@9@9@9@9@R@R@R@R@R@o@o@o@A@A@A@S@I@I@I@M@* * ",
"& M@M@M@M@* * * * * * * * * * * * * * * * * * * * * * * * * * * * * * * * * * * * * * * * * * * * * * * * * * * * * * * * * * * "};
